WS17B/WS17/Session8b/ASIPMeisterProjects/brownie/ISEUART6/chipscope.vcd
$date
   Aug 19, 2017 14:25:08
$end
$version
   ChipScope Pro Analyzer  13.2 O.61xd (Build 13200.11.171.1160)
$end
$timescale
    1ns
$end

$scope module dlx_toplevel $end
$var wire 14 n0 instrAB $end
$var wire 32 n1 instrDB $end
$var wire 17 n2 dataAB_cpu $end
$var wire 16 n3 dataDBo_cpu $end
$var wire 32 n4 dataDBi_cpu $end
$var wire 3 n5 selector $end
$var wire 2 n6 wmode_cpu $end
$var wire  1  n7 finish $end
$var wire  1  n8 datarw_cpu $end
$var wire  1  n9 datareq_cpu $end
$var wire  1  n10 dataae_cpu $end
$var wire  1  n11 dataack_cpu $end
$var wire  1  n12 cancel_cpu $end
$var wire  1  n13 dataack_mem $end
$var wire  1  n14 datareq_mem $end
$var wire  1  n15 emode_cpu $end
$var wire  1  n16 dataack_ports(2) $end
$var wire  1  n17 datareq_ports(2) $end
$var wire  1  n18 enb $end
$upscope $end
$enddefinitions $end

#0
b0 n0
b10000010000100000 n1
b0 n2
b0 n3
b0 n4
b111 n5
b0 n6
1n7
0n8
0n9
0n10
0n11
0n12
0n13
0n14
0n15
0n16
0n17
0n18
#1
0n7
#3
b11000000000000 n0
b10000100001000000100000010000001 n1
b11100000000000 n2
#4
b11000000000100 n0
b10000001110 n1
b0 n2
#5
b11000000001000 n0
b0 n1
#6
b11000000001100 n0
#7
b0 n0
b10000010000100000 n1
#8
b100 n0
b1000010000101000 n1
#9
b1000 n0
b1000000101000100 n1
#10
b1100 n0
b0 n1
b1 n2
#11
b10000 n0
b10000000000000000 n2
#12
b10100 n0
b11 n6
1n9
1n14
#13
0n9
0n14
1n18
#14
b1110111111111100 n4
#15
1n11
1n13
#16
b11000 n0
b0 n2
b0 n4
b0 n6
0n11
0n13
0n18
#17
b11100 n0
b10000100000 n1
#18
b100000 n0
b1110011001000010000101000 n1
#19
b100100 n0
b1000010100101100001 n1
#20
b101000 n0
b1100101000111 n1
#21
b101100 n0
b0 n1
b111001100 n2
#22
b110000 n0
b1110111111111000 n2
#23
b110100 n0
b1110111111111100 n4
b11 n6
1n8
1n9
1n14
#24
0n9
0n14
1n18
#26
1n11
1n13
#27
b111000 n0
b0 n2
b0 n4
b0 n6
0n8
0n11
0n13
0n18
#28
b111100 n0
b11000000000000100001100011 n1
#29
b1000000 n0
b10000001111 n1
#30
b1000100 n0
b10100011000100 n1
#31
b1001000 n0
b0 n1
b1100001000 n2
#32
b111001100 n0
b11111111111111000001100101000111 n1
b111001100 n2
#33
b111010000 n0
b0 n1
b1110111101011000 n2
b1000 n3
b1110111111111100 n4
b11 n6
#34
b111010100 n0
b1110111111111000 n2
b0 n3
#35
b111011000 n0
b1110111111110100 n2
b1000100 n3
1n8
1n9
1n14
#36
0n9
0n14
1n18
#38
1n11
1n13
#39
b111011100 n0
b0 n2
b0 n3
b0 n4
b0 n6
0n8
0n11
0n13
0n18
#40
b111100000 n0
b11111111111110000010000101000111 n1
#41
b111100100 n0
b0 n1
#42
b111101000 n0
#43
b111101100 n0
b1110111111110000 n2
b1110111111111100 n4
b11 n6
1n8
1n9
1n14
#44
0n9
0n14
1n18
#46
1n11
1n13
#47
b111110000 n0
b0 n2
b0 n4
b0 n6
0n8
0n11
0n13
0n18
#48
b111110100 n0
b11111111111110000010100100100000 n1
#49
b111111000 n0
b11111111110110000010100101100000 n1
#50
b111111100 n0
b10000001000100000 n1
#51
b1000000000 n0
b1000100001000101000 n1
b1110111111110000 n2
#52
b1000000100 n0
b11111111111111111001011000001100 n1
b1110111111010000 n2
#53
b1000001000 n0
b110100000 n1
b1 n2
#54
b1000001100 n0
b1000010000011000100 n1
b10000000000000100 n2
#55
b1100000 n0
b11111111111111000001100101000111 n1
b1100000 n2
#56
b1100100 n0
b0 n1
b0 n2
#57
b1101000 n0
#58
b1101100 n0
b1110111111001100 n2
b1000001000 n3
b1110111111111100 n4
b11 n6
1n8
1n9
1n14
#59
0n9
0n14
1n18
#61
1n11
1n13
#62
b1110000 n0
b0 n2
b0 n3
b0 n4
b0 n6
0n8
0n11
0n13
0n18
#63
b1110100 n0
b11111111111110000010000101000111 n1
#64
b1111000 n0
b0 n1
#65
b1111100 n0
#66
b10000000 n0
b1110111111001000 n2
b1110111111110000 n3
b1110111111111100 n4
b11 n6
1n8
1n9
1n14
#67
0n9
0n14
1n18
#69
1n11
1n13
#70
b10000100 n0
b0 n2
b0 n3
b0 n4
b0 n6
0n8
0n11
0n13
0n18
#71
b10001000 n0
b11111111111110000010100100100000 n1
#72
b10001100 n0
b11111111111101000010100101100000 n1
#73
b10010000 n0
b10000100000100000111 n1
#74
b10010100 n0
b0 n1
b1110111111001000 n2
#75
b10011000 n0
b1110111111000100 n2
#76
b10011100 n0
b1110111111010000 n2
b100 n3
b1110111111111100 n4
b11 n6
1n8
1n9
1n14
#77
0n9
0n14
1n18
#79
1n11
1n13
#80
b10100000 n0
b0 n2
b0 n3
b0 n4
b0 n6
0n8
0n11
0n13
0n18
#81
b10100100 n0
b1000000000000000110100000 n1
#82
b10101000 n0
b11000110101000 n1
#83
b10101100 n0
b11111111111111000011000100000111 n1
#84
b10110000 n0
b0 n1
b100000000 n2
b1110111111001000 n3
#85
b10110100 n0
b0 n2
b0 n3
b11111111111111111111111111111111 n4
b10 n5
#86
b10111000 n0
b1110111111000100 n2
b1110111111111100 n4
b111 n5
b11 n6
1n8
1n9
1n14
#87
0n9
0n14
1n18
#89
1n11
1n13
#90
b10111100 n0
b0 n2
b0 n4
b0 n6
0n8
0n11
0n13
0n18
#91
b11000000 n0
b10010000001011 n1
#92
b11000100 n0
b10000010000110000100 n1
#93
b11001000 n0
b0 n1
#94
b101010100 n0
b10000010000110000100 n1
b101010100 n2
#95
b101011000 n0
b0 n1
b1110111101010000 n2
b1110111111111100 n4
b11 n6
#96
b101011100 n0
b1110111111010000 n2
#97
b101100000 n0
1n9
1n14
#98
0n9
0n14
1n18
#99
b10000000000000100 n4
#100
1n11
1n13
#101
b101100100 n0
b0 n2
b0 n4
b0 n6
0n11
0n13
0n18
#102
b101101000 n0
#103
b101101100 n0
b11000110000010 n1
#104
b101110000 n0
b0 n1
#105
b101110100 n0
#106
b101111000 n0
b10000000000000100 n2
b11111111111111111111111100000000 n4
1n9
1n14
1n15
#107
0n9
0n14
1n18
#108
b11111111111111111111111101010100 n4
#109
1n11
1n13
#110
b101111100 n0
b0 n2
b1010100 n4
0n11
0n13
0n15
0n18
#111
b110000000 n0
#112
b110000100 n0
b111111110011000111100010 n1
#113
b110001000 n0
b110100000 n1
#114
b110001100 n0
b111001100011001100000011000001 n1
#115
b110010000 n0
b11111111001100000011000000001010 n1
b1010100 n2
b1000001000 n3
#116
b110010100 n0
b110100000 n1
b0 n2
b0 n3
#117
b110011000 n0
b0 n1
b1010100 n2
#118
b11000100 n0
b10000010000110000100 n1
b11000100 n2
#119
b11001000 n0
b0 n1
b0 n2
#120
b11001100 n0
#121
b11010000 n0
b1110111111010000 n2
b1010100011001010111001101110100 n4
b11 n6
1n9
1n14
#122
0n9
0n14
1n18
#123
b10000000000000100 n4
#124
1n11
1n13
#125
b11010100 n0
b0 n2
b0 n4
b0 n6
0n11
0n13
0n18
#126
b11011000 n0
#127
b11011100 n0
b11000110000010 n1
#128
b11100000 n0
b0 n1
#129
b11100100 n0
#130
b11101000 n0
b10000000000000100 n2
b11111111111111111111111100000000 n4
1n9
1n14
1n15
#131
0n9
0n14
1n18
#132
b11111111111111111111111101010100 n4
#133
1n11
1n13
#134
b11101100 n0
b0 n2
b1010100 n4
0n11
0n13
0n15
0n18
#135
b11110000 n0
#136
b11110100 n0
b111111110011000111100010 n1
#137
b11111000 n0
b11111111111111000010000110000100 n1
#138
b11111100 n0
b0 n1
#139
b100000000 n0
b1010100 n2
b1000001000 n3
#140
b100000100 n0
b1110111111000100 n2
b0 n3
b1010100011001010111001101110100 n4
b11 n6
1n9
1n14
#141
0n9
0n14
1n18
#142
b1000000000000000000000000 n4
#143
1n11
1n13
#144
b100001000 n0
b0 n2
b1 n4
b0 n6
0n11
0n13
0n18
#145
b100001100 n0
#146
b100010000 n0
b11100110000111 n1
#147
b100010100 n0
b0 n1
#148
b100011000 n0
#149
b100011100 n0
b1010100 n3
b11111111111111111111111111111111 n4
b10 n5
b11 n6
1n8
1n9
1n17
#150
0n9
0n17
